%YAML 1.1
%TAG !u! tag:unity3d.com,2011:
--- !u!1045 &1
EditorBuildSettings:
  m_ObjectHideFlags: 0
  serializedVersion: 2
  m_Scenes:
  - enabled: 1
    path: Assets/_VRPathway/Scenes/VRPathway_Scene.unity
    guid: 5bc5f03a98f884da5b3855a1d9581e3d
  m_configObjects:
    Unity.XR.Oculus.Settings: {fileID: 11400000, guid: e7b6cf70c80d6634799bd6c8ea8a47ff, type: 2}
    com.unity.xr.management.loader_settings: {fileID: 11400000, guid: c705ef1e0b6c25648b784aa492df4bd4, type: 2}
    com.unity.xr.openxr.settings4: {fileID: 11400000, guid: f642c7aa8ec4544caa82d64cd8c8def1, type: 2}
    xr.sdk.mock-hmd.settings: {fileID: 11400000, guid: 02ef716946197a740a9144b42a2c8b2b, type: 2}
